ID,associatedWithOccupation,contactDetails,description,endDate,function,name,sourceRecordLink,startDate,type,url,warning,workCount
anucass,,,"The Australian National University's research and education college for the broad disciplines of the Creative Arts, Humanities and the Social Sciences. As of July 2012, the college consisted of two research schools and an institute: the Research School of Social Sciences; the Research School of Humanities and the Arts; and the Australian Demographic & Social Research Institute.",,,ANU College of Arts and Social Sciences,,,,,,
wallaby,,,"The Wallaby Club was founded in 1894 and held its first official walk on 23 June 1894. The Club motto À Votre Santé [to your health] neatly captures the spirit of the Club and its objectives of walking, talking, good companionship and entertaining engagement. Current membership list In 1894, 'it occurred to a Melbourne physician, Dr Henry, that there was room for a club embodying the Johnsonian definition, 'an assembly of good fellows, meeting under certain conditions', and including some special qualifications that would form a bond of sympathy between members. Professional men, including artists, teachers, musicians, writers, and thinking men of all kinds, men who had done something for their calling or for their community, were to be sought. One thing in addtition was essential. Members must be fond of walking, not in the athletic sense - athleticism was rather anathema to the founder and projectors of the Club - but as a means of reasonable outdoor enjoyment that would be conducive to health, conversation and good companionship.' 'As the public park in Athens formed the original Academy pf the Greek philosophers, so the open spaces in the bush lands around Melbourne were to be the habitat of the proposed Club. The idea was sound, and the cooperation of a few well-known men of Melbourne was secured. The first members to be enrolled were three medical men, four senior schoolmasters, a leading dentist, and a young Unviersity professor.' Alfred Hart [page 9] They held their first meeting in Dr Henry's rooms at 54 Collins Street, Melbourne on 22 June 1894, and drew up resolutions, which although they have evloved through time, still well capture the spirit of the Club.",,,The Wallaby Club,,1894-06-22,,,,
