ID,description,endDate,format,function,name,sourceRecordLink,startDate,type,warning
intercolonial-exhibition,The 1866-67 Intercolonial Exhibition of Australia was held in Melbourne. The Bendigo Pottery Company was one of the companies that participated in the exhibition.,1867-12-31,,Festival or Event,Intercolonial Exhibition of Australia,,1866-01-01,,
recruiting-officer,This was the first theatre production staged in Australian history. It was performed by convicts in a mud-wall hut in honour of the birthday of King George III. In the audience was Captain Arthur Phillip and Captain Watkin Tench.,,Theatre - Spoken Word,,The Recruiting Officer,,1789-06-04,,
