ID,description,endDate,function,name,sourceRecordLink,startDate,type,warning
snowy-mountains,"Construction of the Snowy Mountains Hydro-Electric Scheme began in October 1949. The work was completed in 1974, when all power stations were operational.",,Resources,Snowy Mountains Hydro-Electric Scheme,,1949-10-17,,
lawn-bowls,"In 1990, the Australian Bowls Council (now Bowls Australia Inc.), the national administrative body for men's bowling, was affiliated with 2,225 clubs. The Australian Women's Bowling Council was parallel, with 2,185 affiliated clubs. By the late 1990s, Australia could boast 43% of the world's bowling population. Popular in Britain, bowls was introduced to Australia for male members of the colonial elite in the nineteenth century. Public greens were formed beside hotels, with membership fees introduced later to control the clientele - the respectability of the sport was constantly emphasised. Private clubs developed early, and the first recorded game took place at Sandy Bay, Tasmania, in 1845. In 1864, the Melbourne Bowling Club in Chapel Street became Australia's first formalised club. Women had been bowling at Stawell in Victoria since 1881 and a ladies' tournament was organised there in 1896. The Colac Club was set up by eight women in 1899, but later became a men's club, and on the whole the sport of lawn bowls was a white male-dominated scene until the twentieth century. The Fitzroy Club's invitation to the Aboriginal cricket team to play in 1866 was an anomaly. After Australia's first interstate match between New South Wales and Victoria in 1880, those two States established their own Bowling Associations. Associations were likewise formed in Western Australia in 1898; South Australia in 1902; Tasmania in 1901 and Queensland in 1903. All States amalgamated to form the Australian Bowls Council in 1911. The Australian Women's Bowling Council was formed much later, in 1947, and the first Women's National Championship was held in 1949. The first World Bowls Championships were held at Kyeemagh Bowls Club in New South Wales in 1966.",,,Lawn Bowls,,1845-01-01,,
lasseter,"Harold Bell Lasseter and the story of his rich reef of gold, is the most renowned and persistent of all Australian gold seeking legends. In 1929, Lasseter wrote to Government ministers about a fabulously rich reef of gold in Central Australia, which he claimed to have found in 1911. This approach to obtain funding was unsuccessful. He then approached the Australian Workers’ Union (AWU) for financial assistance. On this occasion Lasseter claimed that he had found the reef in 1897, when he was seventeen, after an unsuccessful excursion to a failed ruby rush in the East Macdonnell Ranges in Central Australia. Instead of retracing his steps through Queensland he decided to travel through desert country to Carnarvon on the Western Australian coast. En route he stumbled accidentally upon a reef of gold some sixteen kilometres long. Not long after the find, his horses died; he became lost and would have perished but for the intervention of an Afghan cameleer and surveyor named Harding. Despite other searches over the next thirty plus years, he was unable to locate the reef. The 1930 expedition was the best-equipped gold-seeking exploration in Australia’s history. However, it was a failure in all regards. The terrain was unsuitable for trucks, and the airplane he employed crashed; its replacement was unsuitable. There was dissension between Lasseter and the leader of the expedition, Fred Blakeley, and also with other members of the team – many of whom (including Blakeley) had serious reservations about Lasseter’s credibility. At no time did Lasseter tell them of the precise location of the reef. Following the abandonment of the motorised expedition, Lasseter decided to venture out with a dingo trapper, Paul Johns. Again there was dissent, and Lasseter decided to go it alone, perhaps reaching as far west as Lake Christopher in Western Australia. On his return trip the camels bolted leaving him stranded in the Petermann Ranges, where he died, despite constant nurturing by the local Aboriginal people. Since then there have been many other attempts to find the reef. The main impetus was provided by the publication of Ion Idriess’s 1931 book, Lasseter’s Last Ride. Although accepted as a factual account it was largely fiction, but written with conviction and flair. Seventy-five years later not an ounce, or perhaps even a grain of gold, has been found in the area(s) where Lasseter’s Reef was allegedly located.",,,The Myth and Legend of Lasseter’s Reef,,,,
