ID,biography,birthDate,contactDetails,culturalHeritage,deathDate,ethnicity,familyName,gender,individualName,occupation,sourceRecordLink,title,warning,workCount
tobias-furneaux-1735,1735-08-21T00:00:00,1735-08-21,,,1781-01-01,,Furneaux,Male,Tobias,,,,,
elizabeth-macquarie-1778,2021-08-18T18:05:00,1778-01-01,,,1835-03-11,,Macquarie,Female,Elizabeth Henrietta,Governor's Spouse,,,,
