ID,alternativeTitle,contactDetails,country,creationDate,creator,description,endDate,format,formatDetails,function,isbn,issn,language,name,releaseDate,sourceRecordLink,startDate,subTitle,title,type,url
melbourne-cup-1896,,,Australia,1896-11-03,,"A clip of film that records the events that transpired on Melbourne Cup Day, 1896, including three seconds of the actual horse race. Maurice Sestier's surviving footage of the 1896 Melbourne Cup is the earliest surviving cinema footage taken in Australia.",,Silent films,"Black and White, Silent, 00:02:54",,,,English,Melbourne Cup 1896,,,,,,,
port-fairy-historical-society,,,Australia,1842-01-01,,"Letter book containing copies of inwards and outwards correspondence written by the proprietor of the ""Belfast Gazette"" newspaper, 1845-1853 (Ref No: 58-01-002) -- Port Fairy newspapers, 1842-present -- ""Koroit Sentinel"" newspaper, 1888-1938 The Port Fairy Historical Society is not set up to allow self research, but will do research on request for a fee. The State Library of Victoria has a collection of the ""Koroit Sentinel"" newspaper and of ""The Gazette"" (Port Fairy) under its different names over the years. Deakin University Library and the National Library of Australia also hold some Port Fairy newspapers. regional newspapers, Port Fairy, ""Belfast Gazette"", ""Koroit Sentinel"", Victoria",,Research Collection,,,,English,Port Fairy Historical Society,,,,,,Research Collection: Media: Regional newspapers,http://www.historicalsociety.port-fairy.com/,
